<?xml version="1.0" encoding="UTF-8" standalone="no"?>
<svg
   viewBox="0 0 500 820"
   version="1.1"
   xml:space="preserve"
   style="fill-rule: evenodd; clip-rule: evenodd; stroke-linecap: round;"
   id="svg89"
   xmlns="http://www.w3.org/2000/svg"
   xmlns:svg="http://www.w3.org/2000/svg"><defs
     id="defs83"><linearGradient
       x1="0"
       y1="0"
       x2="1"
       y2="0"
       gradientUnits="userSpaceOnUse"
       gradientTransform="matrix(2.30025e-15,-37.566,37.566,2.30025e-15,416.455,540.999)"
       id="map-marker-38-f"><stop
         offset="0"
         stop-color="rgb(18,111,198)"
         id="stop73" /><stop
         offset="1"
         stop-color="rgb(76,156,209)"
         id="stop75" /></linearGradient><linearGradient
       x1="0"
       y1="0"
       x2="1"
       y2="0"
       gradientUnits="userSpaceOnUse"
       gradientTransform="matrix(1.16666e-15,-19.053,19.053,1.16666e-15,414.482,522.486)"
       id="map-marker-38-s"><stop
         offset="0"
         stop-color="rgb(46,108,151)"
         id="stop78" /><stop
         offset="1"
         stop-color="rgb(56,131,183)"
         id="stop80" /></linearGradient></defs><g
     transform="matrix(19.5417,0,0,19.5417,-7889.1,-9807.44)"
     id="g87"><path
       d="M416.544,503.612C409.971,503.612 404.5,509.303 404.5,515.478C404.5,518.256 406.064,521.786 407.194,524.224L416.5,542.096L425.762,524.224C426.892,521.786 428.5,518.433 428.5,515.478C428.5,509.303 423.117,503.612 416.544,503.612ZM416.544,510.767C419.128,510.784 421.223,512.889 421.223,515.477C421.223,518.065 419.128,520.14 416.544,520.156C413.96,520.139 411.865,518.066 411.865,515.477C411.865,512.889 413.96,510.784 416.544,510.767Z"
       stroke-width="1.1px"
       fill="url(#map-marker-38-f)"
       stroke="url(#map-marker-38-s)"
       id="path85"
       style="fill:#ffffff;stroke:#ffffff" /><path
       style="fill:#4d4d4d;stroke:#4d4d4d;stroke-width:3.60281"
       d="M 155.2812,626.80506 C 103.16652,526.7569 58.153086,439.80312 55.251342,433.57444 26.467314,371.78866 10.450566,323.21025 6.140402,284.62214 5.1058353,275.35986 5.2754027,252.2164 6.4501864,242.34113 7.0007457,237.71311 8.1606688,230.17422 9.0277933,225.58805 l 1.5765897,-8.33849 H 21.18529 31.766197 l -1.63904,8.10633 c -4.513808,22.32428 -5.062058,49.36697 -1.413354,69.71441 5.002659,27.89794 15.231958,59.50932 31.827806,98.35677 12.396755,29.01824 17.344102,38.98198 60.107761,121.05448 22.71455,43.59402 59.93936,115.09182 82.72179,158.884 22.78244,43.79218 42.61228,81.7968 44.06633,84.45471 l 2.64371,4.83256 42.08775,-81.21218 c 23.14827,-44.66669 61.75149,-119.14978 85.78495,-165.51797 46.04055,-88.82689 59.42506,-116.46198 72.59002,-149.87698 11.7255,-29.76141 19.57977,-58.17152 22.14519,-80.10262 2.14767,-18.35988 1.09576,-41.55078 -2.74815,-60.58718 l -1.63686,-8.10633 h 10.60794 10.60793 l 0.75157,3.78295 c 5.31966,26.77586 5.90191,51.73625 1.80272,77.28032 -5.65292,35.22618 -22.60628,82.43019 -49.88796,138.90527 -3.92148,8.11777 -162.12689,313.99427 -191.33602,369.93168 -0.72208,1.38282 -11.63188,-19.20465 -95.56908,-180.34472 z"
       id="path1512"
       transform="matrix(0.05117262,0,0,0.05117262,403.70592,501.87241)" /><path
       style="fill:#4d4d4d;stroke:#4d4d4d;stroke-width:3.60281"
       d="m 11.483633,213.10633 c 0.25913,-1.08985 1.760392,-6.30669 3.336137,-11.59297 22.838714,-76.61892 86.1039,-141.009926 163.15914,-166.062597 25.58047,-8.316878 46.40729,-11.597512 73.49736,-11.577281 34.52111,0.02578 65.84615,6.98206 98.22589,21.812804 60.52639,27.722619 109.86676,81.736494 132.03355,144.539724 2.17889,6.17326 7.16587,23.01414 7.16587,24.19892 0,0.374 -4.6976,0.66294 -10.77792,0.66294 h -10.77793 l -1.51587,-5.22407 c -2.69138,-9.27518 -2.98252,-10.12246 -6.99449,-20.35589 -18.12984,-46.24415 -52.57492,-86.97768 -95.67193,-113.138256 -78.73115,-47.79107 -174.25482,-41.46046 -248.92593,16.496992 -9.07282,7.042046 -26.962323,24.285094 -34.477656,33.231774 -20.467586,24.36577 -34.859635,50.29151 -44.100288,79.442 l -3.026527,9.54745 H 21.822764 11.012488 Z"
       id="path1514"
       transform="matrix(0.05117262,0,0,0.05117262,403.70592,501.87241)" /><path
       style="fill:#4d4d4d;stroke:#4d4d4d;stroke-width:3.60281"
       d="m 234.18278,366.72557 c -16.65693,-3.11296 -31.61562,-9.55361 -44.71843,-19.25408 -7.28681,-5.39468 -17.30155,-15.81883 -22.52373,-23.4445 -12.90577,-18.84561 -18.81759,-39.34621 -17.9087,-62.10256 1.06227,-26.59689 11.11216,-49.52253 30.02017,-68.48152 14.49926,-14.53835 31.64256,-23.81349 52.11268,-28.19484 9.77742,-2.09272 27.97195,-2.25853 37.57886,-0.34247 15.39286,3.07005 31.26287,10.0129 42.94057,18.78572 12.03301,9.03975 23.95698,23.28311 30.69828,36.66953 3.61633,7.18107 7.87199,20.55427 9.28968,29.19237 1.50201,9.15186 1.11148,29.18635 -0.72924,37.40948 -4.47248,19.98021 -13.62384,36.60463 -28.0774,51.00559 -14.57343,14.52039 -31.21309,23.58288 -51.57378,28.08875 -7.72021,1.70849 -29.44962,2.09996 -37.10896,0.66853 z M 260.12302,346.152 c 12.429,-1.52313 26.17667,-6.6778 36.49141,-13.68241 5.93059,-4.02739 14.92575,-12.6934 19.29491,-18.58888 18.18321,-24.53533 20.94265,-56.91647 7.19112,-84.3856 -12.63714,-25.24311 -36.41839,-41.69074 -64.71753,-44.76005 -21.0474,-2.28279 -43.38484,4.97979 -60.66923,19.7254 -4.94908,4.22216 -12.95036,13.93015 -16.5232,20.04771 -13.84658,23.70862 -14.92621,51.83561 -2.94355,76.68691 14.79728,30.68866 48.28074,49.07393 81.87607,44.95692 z"
       id="path1516"
       transform="matrix(0.05117262,0,0,0.05117262,403.70592,501.87241)" /><path
       style="fill:#a55eea;stroke:#a55eea;stroke-width:3.60281;fill-opacity:1;stroke-opacity:1"
       d="m 248.55756,755.41232 c -0.68198,-1.33354 -10.88218,-20.90705 -22.66712,-43.49668 -19.62693,-37.62135 -83.52043,-160.33112 -117.62148,-225.89631 -19.260237,-37.03115 -33.879508,-66.4 -40.531146,-81.42355 -22.27585,-50.31277 -35.7911,-93.44098 -38.612713,-123.21617 -1.500979,-15.83913 -0.172433,-38.63181 3.311933,-56.81987 1.246177,-6.50494 7.908785,-26.82478 12.154232,-37.0684 17.184873,-41.46446 48.815945,-79.30609 87.353674,-104.505018 53.30194,-34.852893 116.39085,-45.072646 175.7352,-28.46729 72.16455,20.192623 132.71541,79.717048 154.90833,152.282378 1.45446,4.75571 2.93378,9.29525 3.28739,10.08787 0.80142,1.79639 3.23025,15.03829 4.42757,24.13884 0.51444,3.91015 0.89984,14.56952 0.89883,24.8594 -0.001,15.60834 -0.22344,19.26504 -1.66154,27.38137 -5.90848,33.34616 -17.96121,68.44448 -38.96909,113.48054 -3.23309,6.93099 -14.06757,28.81808 -24.07663,48.63796 -18.1411,35.9229 -155.08684,300.64225 -156.14209,301.82633 -0.30548,0.34278 -1.11338,-0.46786 -1.79535,-1.8014 z m 11.56546,-386.12585 c 43.05437,-2.99157 80.70112,-34.85412 91.88427,-77.76677 2.25573,-8.65586 3.3118,-25.06334 2.31431,-35.95599 -1.3127,-14.33471 -6.10211,-29.59278 -12.95685,-41.27771 -6.97792,-11.89493 -17.80927,-24.19668 -28.21395,-32.04411 -11.39504,-8.59437 -29.98364,-16.71097 -44.54683,-19.45111 -8.93378,-1.68093 -32.56487,-1.09376 -40.90625,1.01643 -27.30374,6.90724 -49.42542,22.75139 -64.80597,46.4158 -15.00081,23.08013 -19.80191,53.20699 -12.93188,81.14745 10.92662,44.43863 51.28506,77.04499 97.19303,78.5241 1.58524,0.0511 7.42179,-0.22257 12.97012,-0.60809 z"
       id="path1785"
       transform="matrix(0.05117262,0,0,0.05117262,403.70592,501.87241)" /></g></svg>
